%YAML 1.1
%TAG !u! tag:unity3d.com,2011:
--- !u!114 &11400000
MonoBehaviour:
  m_ObjectHideFlags: 0
  m_CorrespondingSourceObject: {fileID: 0}
  m_PrefabInternal: {fileID: 0}
  m_GameObject: {fileID: 0}
  m_Enabled: 1
  m_EditorHideFlags: 0
  m_Script: {fileID: 0}
  m_Name: MenuDisappearAudio
  m_EditorClassIdentifier: Assembly-CSharp::audioFile
  fileName: menu-disappear
  filePath: Assets/Universal Sound FX/USER_INTERFACES/Appear_Disappear/UI_Animate_Clean_Beeps_Disappear_stereo.wav
  indexValue: 1
